
<svg xmlns="http://www.w3.org/2000/svg" version="1.1" xmlns:xlink="http://www.w3.org/1999/xlink" preserveAspectRatio="none" x="0px" y="0px" width="160px" height="600px" viewBox="0 0 160 600">
<defs>
<g id="Layer4_0_FILL">
<path fill="#FFFFFF" stroke="none" d="
M 80.25 84.7
L 80.25 94.1 87.15 94.1 87.15 140 97.05 140 97.05 84.7 80.25 84.7
M 49.3 94.1
L 56.2 94.1 56.2 140 66.1 140 66.1 84.7 49.3 84.7 49.3 94.1 Z"/>
</g>
</defs>

<g transform="matrix( 1, 0, 0, 1, 0,0) ">
<use xlink:href="#Layer4_0_FILL"/>
</g>
</svg>
