
<svg xmlns="http://www.w3.org/2000/svg" version="1.1" xmlns:xlink="http://www.w3.org/1999/xlink" preserveAspectRatio="none" x="0px" y="0px" width="160px" height="600px" viewBox="0 0 160 600">
<defs>
<g id="Layer4_0_FILL">
<path fill="#FFFFFF" stroke="none" d="
M 93.35 91.55
Q 91.55 88.1 88.2 85.85 84.8 83.65 79.95 83.55 75.15 83.65 71.75 85.85 68.4 88.1 66.65 91.55 64.85 95 64.85 98.8 64.9 101.6 65.7 103.65 66.55 105.65 67.7 107 68.8 108.4 69.75 109.3 68.55 109.85 66.65 111.45 64.75 112.95 63.2 115.85 61.7 118.7 61.55 123.2 61.65 128.35 64.2 132.4 66.8 136.4 70.95 138.75 75.1 141.1 79.95 141.15 84.85 141.1 89 138.75 93.15 136.4 95.75 132.4 98.3 128.35 98.35 123.2 98.25 118.7 96.75 115.85 95.2 112.95 93.3 111.45 91.4 109.85 90.2 109.3 91.1 108.4 92.25 107 93.4 105.65 94.25 103.65 95.15 101.6 95.15 98.8 95.15 95 93.35 91.55
M 75.9 94.75
Q 77.5 93.05 79.95 93 82.5 93.05 84.15 94.75 85.75 96.45 85.85 99 85.75 101.5 84.15 103.15 82.5 104.85 79.95 104.9 77.5 104.85 75.9 103.15 74.25 101.5 74.15 99 74.25 96.45 75.9 94.75
M 71.45 123.2
Q 71.55 119.55 73.95 117.15 76.35 114.75 79.95 114.7 83.6 114.75 86 117.15 88.4 119.55 88.45 123.2 88.4 126.85 86 129.25 83.6 131.65 79.95 131.7 76.35 131.65 73.95 129.25 71.55 126.85 71.45 123.2 Z"/>
</g>
</defs>

<g transform="matrix( 1, 0, 0, 1, 0,0) ">
<use xlink:href="#Layer4_0_FILL"/>
</g>
</svg>
