
<svg xmlns="http://www.w3.org/2000/svg" version="1.1" xmlns:xlink="http://www.w3.org/1999/xlink" preserveAspectRatio="none" x="0px" y="0px" width="300px" height="250px" viewBox="0 0 300 250">
<defs>
<g id="Layer3_0_FILL">
<path fill="#FFFFFF" stroke="none" d="
M 174.5 114.5
Q 174.4 106.3 170.75 100.35 167.15 94.35 161.3 91.1 155.45 87.85 148.65 87.8 141.8 87.85 135.95 91.25 130.15 94.6 126.6 100.65 123.05 106.65 122.95 114.6 123.05 122.05 126.3 127.5 129.55 132.95 134.55 135.85 139.55 138.8 144.95 138.9 145.95 138.9 146.85 138.85 147.7 138.8 148.55 138.6
L 132.05 163.75 147.75 163.75 168.45 132.15
Q 169.75 130.2 170.8 128.15 171.9 126.05 172.75 123.8 173.65 121.3 174.1 118.9 174.5 116.55 174.5 114.5
M 159.55 107.1
Q 161.1 110.15 161.15 113.9 161.15 116.75 159.75 119.6 158.3 122.5 155.55 124.45 152.8 126.4 148.8 126.5 143.15 126.4 139.75 122.75 136.4 119.15 136.3 113.35 136.3 110.35 137.7 107.45 139.15 104.5 141.95 102.55 144.7 100.55 148.8 100.5 152.35 100.55 155.1 102.3 157.9 104.1 159.55 107.1 Z"/>
</g>
</defs>

<g transform="matrix( 1, 0, 0, 1, 0,0) ">
<use xlink:href="#Layer3_0_FILL"/>
</g>
</svg>
