
<svg xmlns="http://www.w3.org/2000/svg" version="1.1" xmlns:xlink="http://www.w3.org/1999/xlink" preserveAspectRatio="none" x="0px" y="0px" width="300px" height="250px" viewBox="0 0 300 250">
<defs>
<g id="Layer3_0_FILL">
<path fill="#FFFFFF" stroke="none" d="
M 167.9 114.75
Q 169.1 112 169.15 108.25 169.15 103.15 166.7 98.45 164.3 93.8 159.75 90.8 155.15 87.8 148.65 87.7 142.2 87.8 137.6 90.8 133.1 93.8 130.7 98.45 128.3 103.15 128.3 108.25 128.35 112 129.45 114.75 130.6 117.45 132.1 119.3 133.65 121.2 134.9 122.4 133.3 123.15 130.7 125.25 128.15 127.3 126.1 131.2 124.05 135.05 123.9 141.15 124 148.05 127.4 153.55 130.9 158.95 136.5 162.1 142.1 165.2 148.65 165.25 155.25 165.2 160.85 162.1 166.45 158.95 169.95 153.55 173.35 148.05 173.45 141.15 173.3 135.05 171.25 131.2 169.2 127.3 166.65 125.25 164.05 123.15 162.45 122.4 163.7 121.2 165.2 119.3 166.8 117.45 167.9 114.75
M 154.3 102.75
Q 156.5 105.05 156.6 108.5 156.5 111.85 154.3 114.1 152.1 116.35 148.65 116.45 145.35 116.35 143.15 114.1 140.95 111.85 140.85 108.5 140.95 105.05 143.15 102.75 145.35 100.5 148.65 100.4 152.1 100.5 154.3 102.75
M 137.2 141.15
Q 137.3 136.2 140.55 133 143.8 129.75 148.65 129.65 153.55 129.75 156.8 133 160 136.2 160.1 141.15 160 146 156.8 149.25 153.55 152.5 148.65 152.6 143.8 152.5 140.55 149.25 137.3 146 137.2 141.15 Z"/>
</g>
</defs>

<g transform="matrix( 1, 0, 0, 1, 0,0) ">
<use xlink:href="#Layer3_0_FILL"/>
</g>
</svg>
