
<svg xmlns="http://www.w3.org/2000/svg" version="1.1" xmlns:xlink="http://www.w3.org/1999/xlink" preserveAspectRatio="none" x="0px" y="0px" width="300px" height="250px" viewBox="0 0 300 250">
<defs>
<g id="Layer3_0_FILL">
<path fill="#FFFFFF" stroke="none" d="
M 177.6 91.35
Q 172.15 87.8 164.5 87.7 158.7 87.75 154.2 89.9 149.65 92.05 146.5 95.6 143.4 99.2 141.75 103.55 140.15 107.9 140.15 112.4 140.15 112.95 140.15 113.5 140.2 114.05 140.25 114.8
L 153.45 114.8
Q 153.4 112.6 153.65 110.45 153.9 108.35 154.9 106.45 156 104.25 158.45 102.4 160.9 100.5 164.85 100.4 167.4 100.4 169.9 101.5 172.35 102.7 173.95 105.15 175.65 107.65 175.7 111.55 175.75 113.25 175.2 115.4 174.6 117.5 172.85 120.2 171.05 122.85 167.45 126.3
L 140.9 151.05 140.9 163.75 189 163.75 189 151.05 159.6 151.05 174.7 137.55
Q 180.35 132.5 183.5 128.15 186.6 123.85 187.85 119.9 189.05 115.95 189 112.2 188.95 105.95 186.05 100.45 183.1 94.9 177.6 91.35
M 128.1 89.25
L 105.45 89.25 105.45 101.9 114.75 101.9 114.75 163.75 128.1 163.75 128.1 89.25 Z"/>
</g>
</defs>

<g transform="matrix( 1, 0, 0, 1, 0,0) ">
<use xlink:href="#Layer3_0_FILL"/>
</g>
</svg>
