
<svg xmlns="http://www.w3.org/2000/svg" version="1.1" xmlns:xlink="http://www.w3.org/1999/xlink" preserveAspectRatio="none" x="0px" y="0px" width="300px" height="250px" viewBox="0 0 300 250">
<defs>
<g id="Layer3_0_FILL">
<path fill="#FFFFFF" stroke="none" d="
M 167.45 114.7
Q 168.6 112.05 168.65 107.85 168.6 102.55 166 98 163.35 93.4 158.85 90.6 154.35 87.8 148.5 87.7 146.7 87.65 143.65 88.35 140.6 89.05 137.35 91 134.2 93 131.75 96.95 129.35 100.85 128.7 107.25
L 142.1 107.25
Q 142.15 106.15 142.75 104.5 143.4 102.95 144.8 101.7 146.25 100.45 148.7 100.4 151.3 100.35 153.25 101.9 155.2 103.5 155.3 107.45 155.25 110.35 153.95 112.15 152.6 113.9 150.5 114.65 148.4 115.45 146 115.45
L 143.65 115.45 143.65 128.1 145.85 128.1
Q 151.3 128.15 154.55 130 157.8 131.85 159.25 134.65 160.65 137.45 160.6 140.5 160.55 144.2 158.8 146.9 157.05 149.6 154.35 151.1 151.65 152.6 148.75 152.6 146.4 152.6 143.75 151.45 141.15 150.3 139.2 147.75 137.15 145.25 136.75 141.3
L 123.35 141.3
Q 123.9 148.85 127.5 154.2 131.15 159.5 136.7 162.35 142.2 165.2 148.45 165.25 155.05 165.2 160.8 162.25 166.6 159.25 170.2 153.6 173.85 148 173.95 140.3 174 139.4 173.75 137.1 173.55 134.75 172.5 131.75 171.45 128.7 169 125.85 166.6 123 162.25 121.1 163.25 120.4 164.75 118.85 166.25 117.35 167.45 114.7 Z"/>
</g>
</defs>

<g transform="matrix( 1, 0, 0, 1, 0,0) ">
<use xlink:href="#Layer3_0_FILL"/>
</g>
</svg>
