
<svg xmlns="http://www.w3.org/2000/svg" version="1.1" xmlns:xlink="http://www.w3.org/1999/xlink" preserveAspectRatio="none" x="0px" y="0px" width="300px" height="250px" viewBox="0 0 300 250">
<defs>
<g id="Layer3_0_FILL">
<path fill="#FFFFFF" stroke="none" d="
M 165.75 163.75
L 179.1 163.75 179.1 89.25 156.45 89.25 156.45 101.9 165.75 101.9 165.75 163.75
M 134.25 89.25
L 111.6 89.25 111.6 101.9 120.9 101.9 120.9 163.75 134.25 163.75 134.25 89.25 Z"/>
</g>
</defs>

<g transform="matrix( 1, 0, 0, 1, 0,0) ">
<use xlink:href="#Layer3_0_FILL"/>
</g>
</svg>
