
<svg xmlns="http://www.w3.org/2000/svg" version="1.1" xmlns:xlink="http://www.w3.org/1999/xlink" preserveAspectRatio="none" x="0px" y="0px" width="160px" height="600px" viewBox="0 0 160 600">
<defs>
<filter id="Filter_1" x="-20%" y="-20%" width="140%" height="140%" color-interpolation-filters="sRGB">
<feColorMatrix in="SourceGraphic" type="matrix" values="1 0 0 0 0 0 1 0 0 0 0 0 1 0 0 0 0 0 0.9 0" result="result1"/>
</filter>

<g id="BLC_INT_SFL_2016_160x600_CD_psd_Asset_Countdown_Common_copy_TOP_PRIZES_TO_GO_IN_BC_0_Layer0_0_MEMBER_0_FILL">
<path fill="#FFFFFF" stroke="none" d="
M -29.2 -19.25
L -24.9 -19.25 -24.9 0 -20.55 0 -20.55 -19.25 -16.25 -19.25 -16.25 -23.25 -29.2 -23.25 -29.2 -19.25 Z"/>
</g>

<g id="BLC_INT_SFL_2016_160x600_CD_psd_Asset_Countdown_Common_copy_TOP_PRIZES_TO_GO_IN_BC_0_Layer0_0_MEMBER_1_FILL">
<path fill="#FFFFFF" stroke="none" d="
M 9.95 -11.55
Q 9.95 -16.65 6.35 -20.2 2.8 -23.7 -2.2 -23.7 -7.2 -23.7 -10.75 -20.2 -14.35 -16.65 -14.35 -11.55 -14.35 -6.55 -10.8 -3.05 -7.25 0.45 -2.2 0.45 2.85 0.45 6.4 -3.05 9.95 -6.55 9.95 -11.55
M 5.65 -11.6
Q 5.65 -8.35 3.4 -5.95 1.1 -3.55 -2.2 -3.55 -5.5 -3.55 -7.8 -5.95 -10.05 -8.35 -10.05 -11.6 -10.05 -14.95 -7.75 -17.3 -5.45 -19.7 -2.2 -19.7 1.05 -19.7 3.35 -17.3 5.65 -14.95 5.65 -11.6 Z"/>
</g>

<g id="BLC_INT_SFL_2016_160x600_CD_psd_Asset_Countdown_Common_copy_TOP_PRIZES_TO_GO_IN_BC_0_Layer0_0_MEMBER_2_FILL">
<path fill="#FFFFFF" stroke="none" d="
M 18.35 -8.85
L 19.9 -8.85
Q 22.3 -8.85 23.4 -9.1 25.25 -9.45 26.7 -10.7 28.9 -12.75 28.9 -16.05 28.9 -19.35 26.7 -21.4 25.25 -22.65 23.4 -23 22.3 -23.25 19.9 -23.25
L 14.05 -23.25 14.05 0 18.35 0 18.35 -8.85
M 18.35 -12.9
L 18.35 -19.25 19.9 -19.25
Q 21.85 -19.25 22.9 -18.8 24.6 -18.05 24.6 -16.05 24.6 -14.05 22.85 -13.35 21.85 -12.9 19.75 -12.9
L 18.35 -12.9 Z"/>
</g>

<g id="BLC_INT_SFL_2016_160x600_CD_psd_Asset_Countdown_Common_copy_TOP_PRIZES_TO_GO_IN_BC_0_Layer0_0_MEMBER_3_FILL">
<path fill="#FFFFFF" stroke="none" d="
M -33.55 24.2
Q -31.35 22.2 -31.35 18.85 -31.35 15.5 -33.55 13.5 -35.05 12.25 -36.85 11.9 -37.95 11.65 -40.35 11.65
L -46.2 11.65 -46.2 34.9 -41.9 34.9 -41.9 26.05 -40.35 26.05
Q -37.95 26.05 -36.85 25.8 -35.05 25.45 -33.55 24.2
M -37.4 21.55
Q -38.4 22 -40.5 22
L -41.9 22 -41.9 15.65 -40.35 15.65
Q -38.4 15.65 -37.35 16.1 -35.65 16.85 -35.65 18.85 -35.65 20.85 -37.4 21.55 Z"/>
</g>

<g id="BLC_INT_SFL_2016_160x600_CD_psd_Asset_Countdown_Common_copy_TOP_PRIZES_TO_GO_IN_BC_0_Layer0_0_MEMBER_4_FILL">
<path fill="#FFFFFF" stroke="none" d="
M -12.55 18.85
Q -12.55 15.45 -15.3 13.2 -17.2 11.65 -20.95 11.65
L -28.05 11.65 -28.05 34.9 -23.75 34.9 -23.75 26 -23.7 26 -17.55 34.9 -12.35 34.9 -18.65 26.35
Q -17.35 26 -16.8 25.75 -15.7 25.3 -14.8 24.4 -12.55 22.3 -12.55 18.85
M -16.85 19.2
Q -16.85 20.5 -17.6 21.45 -18.65 22.8 -21 22.8
L -23.75 22.8 -23.75 15.65 -21 15.65
Q -18.75 15.65 -17.65 16.95 -16.85 17.9 -16.85 19.2 Z"/>
</g>

<g id="BLC_INT_SFL_2016_160x600_CD_psd_Asset_Countdown_Common_copy_TOP_PRIZES_TO_GO_IN_BC_0_Layer0_0_MEMBER_5_FILL">
<path fill="#FFFFFF" stroke="none" d="
M -8.8 11.65
L -8.8 34.9 -4.5 34.9 -4.5 11.65 -8.8 11.65 Z"/>
</g>

<g id="BLC_INT_SFL_2016_160x600_CD_psd_Asset_Countdown_Common_copy_TOP_PRIZES_TO_GO_IN_BC_0_Layer0_0_MEMBER_6_FILL">
<path fill="#FFFFFF" stroke="none" d="
M 13 15.4
L 13 11.65 -0.4 11.65 -0.4 15.65 8 15.65 -0.9 31.4 -0.9 34.9 13.6 34.9 13.6 30.9 4.2 30.9 13 15.4 Z"/>
</g>

<g id="BLC_INT_SFL_2016_160x600_CD_psd_Asset_Countdown_Common_copy_TOP_PRIZES_TO_GO_IN_BC_0_Layer0_0_MEMBER_7_FILL">
<path fill="#FFFFFF" stroke="none" d="
M 29.4 15.65
L 29.4 11.65 16.9 11.65 16.9 34.9 29.4 34.9 29.4 30.9 21.2 30.9 21.2 25.4 29.05 25.4 29.05 21.35 21.2 21.35 21.2 15.65 29.4 15.65 Z"/>
</g>

<g id="BLC_INT_SFL_2016_160x600_CD_psd_Asset_Countdown_Common_copy_TOP_PRIZES_TO_GO_IN_BC_0_Layer0_0_MEMBER_8_FILL">
<path fill="#FFFFFF" stroke="none" d="
M 43.3 28.45
Q 43.3 29.75 42.35 30.55 41.4 31.35 40.1 31.35 39 31.35 38.15 30.65 37.15 29.85 37 28.25
L 32.5 28.25
Q 32.65 31.75 35.25 33.7 37.4 35.35 40.05 35.35 43.05 35.35 45.2 33.55 47.6 31.5 47.6 27.95 47.6 22.7 41.5 20.8 39.3 20.05 38.7 19.65 37.65 18.9 37.65 17.55 37.65 16.55 38.35 15.85 39.05 15.2 40.05 15.2 42.4 15.2 42.65 17.8
L 47.05 17.8
Q 46.9 14.55 44.5 12.7 42.55 11.2 40.15 11.2 37.25 11.2 35.3 13.1 33.35 15 33.35 17.8 33.35 20.95 35.45 22.75 36.4 23.5 38.85 24.5 41.5 25.5 42.15 26 43.3 26.8 43.3 28.45 Z"/>
</g>

<g id="BLC_INT_SFL_2016_160x600_CD_psd_Asset_Countdown_Common_copy_TOP_PRIZES_TO_GO_IN_BC_0_Layer0_0_MEMBER_9_FILL">
<path fill="#FFFFFF" stroke="none" d="
M -47.65 50.6
L -47.65 69.8 -43.35 69.8 -43.35 50.6 -39 50.6 -39 46.55 -51.95 46.55 -51.95 50.6 -47.65 50.6 Z"/>
</g>

<g id="BLC_INT_SFL_2016_160x600_CD_psd_Asset_Countdown_Common_copy_TOP_PRIZES_TO_GO_IN_BC_0_Layer0_0_MEMBER_10_FILL">
<path fill="#FFFFFF" stroke="none" d="
M -16.4 66.75
Q -12.8 63.25 -12.8 58.25 -12.8 53.15 -16.4 49.6 -19.95 46.1 -24.95 46.1 -29.95 46.1 -33.5 49.6 -37.15 53.15 -37.15 58.25 -37.15 63.25 -33.55 66.75 -30 70.3 -24.95 70.3 -19.95 70.3 -16.4 66.75
M -17.1 58.2
Q -17.1 61.45 -19.35 63.85 -21.7 66.25 -24.95 66.25 -28.25 66.25 -30.55 63.85 -32.8 61.45 -32.8 58.2 -32.8 54.85 -30.5 52.5 -28.25 50.1 -24.95 50.1 -21.7 50.1 -19.4 52.5 -17.1 54.85 -17.1 58.2 Z"/>
</g>

<g id="BLC_INT_SFL_2016_160x600_CD_psd_Asset_Countdown_Common_copy_TOP_PRIZES_TO_GO_IN_BC_0_Layer0_0_MEMBER_11_FILL">
<path fill="#FFFFFF" stroke="none" d="
M 19.2 48.5
Q 15.9 46.1 11.8 46.1 6.8 46.1 3.15 49.6 -0.55 53.15 -0.55 58.2 -0.55 63.35 3.2 66.85 6.85 70.3 11.95 70.3 16.9 70.3 20.55 66.85 24.25 63.35 24.25 58.45
L 24.25 57.95 9.1 57.95 9.1 62 18.8 62
Q 17.8 64 15.95 65.15 14.1 66.25 11.95 66.25 8.1 66.25 5.75 63.55 3.75 61.2 3.75 58.2 3.75 55.15 5.75 52.8 8.05 50.1 11.7 50.1 13.85 50.1 15.6 51.15 17.05 52.05 17.95 53.35
L 23.1 53.35
Q 22.1 50.6 19.2 48.5 Z"/>
</g>

<g id="BLC_INT_SFL_2016_160x600_CD_psd_Asset_Countdown_Common_copy_TOP_PRIZES_TO_GO_IN_BC_0_Layer0_0_MEMBER_12_FILL">
<path fill="#FFFFFF" stroke="none" d="
M 30.4 49.6
Q 26.8 53.15 26.8 58.25 26.8 63.25 30.35 66.75 33.95 70.3 38.95 70.3 44 70.3 47.55 66.75 51.1 63.25 51.1 58.25 51.1 53.15 47.5 49.6 43.95 46.1 38.95 46.1 33.95 46.1 30.4 49.6
M 33.35 63.85
Q 31.1 61.45 31.1 58.2 31.1 54.85 33.4 52.5 35.7 50.1 38.95 50.1 42.2 50.1 44.5 52.5 46.8 54.85 46.8 58.2 46.8 61.45 44.55 63.85 42.25 66.25 38.95 66.25 35.65 66.25 33.35 63.85 Z"/>
</g>

<g id="BLC_INT_SFL_2016_160x600_CD_psd_Asset_Countdown_Common_copy_TOP_PRIZES_TO_GO_IN_BC_0_Layer0_0_MEMBER_13_FILL">
<path fill="#FFFFFF" stroke="none" d="
M -36.8 81.45
L -41.1 81.45 -41.1 104.7 -36.8 104.7 -36.8 81.45 Z"/>
</g>

<g id="BLC_INT_SFL_2016_160x600_CD_psd_Asset_Countdown_Common_copy_TOP_PRIZES_TO_GO_IN_BC_0_Layer0_0_MEMBER_14_FILL">
<path fill="#FFFFFF" stroke="none" d="
M -26.65 81.45
L -31.55 81.45 -31.55 104.7 -27.25 104.7 -27.25 87.8 -27.2 87.8 -17.5 104.7 -12.7 104.7 -12.7 81.45 -17 81.45 -17 98.35 -17.05 98.35 -26.65 81.45 Z"/>
</g>

<g id="BLC_INT_SFL_2016_160x600_CD_psd_Asset_Countdown_Common_copy_TOP_PRIZES_TO_GO_IN_BC_0_Layer0_0_MEMBER_15_FILL">
<path fill="#FFFFFF" stroke="none" d="
M 13.8 83.25
Q 12.45 82.05 10.45 81.7 9.2 81.45 6.65 81.45
L 2.05 81.45 2.05 104.7 8.25 104.7
Q 12.3 104.7 14.25 103.35 17.15 101.25 17.15 97.8 17.15 93.55 13.15 92 15.75 90.6 15.75 87.6 15.75 85.05 13.8 83.25
M 6.35 85.5
L 8.15 85.5
Q 11.45 85.5 11.45 88 11.45 90.5 7.75 90.5
L 6.35 90.5 6.35 85.5
M 6.35 94.55
L 8.6 94.55
Q 11.1 94.55 12.15 95.75 12.85 96.55 12.85 97.65 12.85 100.7 8.5 100.7
L 6.35 100.7 6.35 94.55 Z"/>
</g>

<g id="BLC_INT_SFL_2016_160x600_CD_psd_Asset_Countdown_Common_copy_TOP_PRIZES_TO_GO_IN_BC_0_Layer0_0_MEMBER_16_FILL">
<path fill="#FFFFFF" stroke="none" d="
M 23.4 84.6
Q 19.9 88.15 19.9 93 19.9 97.95 23.45 101.55 27.05 105.2 32.05 105.2 35.45 105.2 38.4 103.3 41.45 101.4 42.8 98.25
L 37.8 98.25
Q 36.6 99.55 35.65 100.1 34 101.15 31.95 101.15 28.85 101.15 26.55 98.75 24.2 96.3 24.2 93.05 24.2 89.65 26.6 87.3 28.85 85 31.8 85 35.4 85 38 88.1
L 42.9 88.1
Q 41.35 84.55 38.05 82.65 35.2 81 31.95 81 26.95 81 23.4 84.6 Z"/>
</g>
</defs>

<g transform="matrix( 1, 0, 0, 1, 38,155) ">
<g transform="matrix( 0.857391357421875, 0, 0, 0.859527587890625, 45,21.35) ">
<use filter="url(#Filter_1)" xlink:href="#BLC_INT_SFL_2016_160x600_CD_psd_Asset_Countdown_Common_copy_TOP_PRIZES_TO_GO_IN_BC_0_Layer0_0_MEMBER_0_FILL"/>
</g>

<g transform="matrix( 0.857391357421875, 0, 0, 0.859527587890625, 45,21.35) ">
<use filter="url(#Filter_1)" xlink:href="#BLC_INT_SFL_2016_160x600_CD_psd_Asset_Countdown_Common_copy_TOP_PRIZES_TO_GO_IN_BC_0_Layer0_0_MEMBER_1_FILL"/>
</g>

<g transform="matrix( 0.857391357421875, 0, 0, 0.859527587890625, 45,21.35) ">
<use filter="url(#Filter_1)" xlink:href="#BLC_INT_SFL_2016_160x600_CD_psd_Asset_Countdown_Common_copy_TOP_PRIZES_TO_GO_IN_BC_0_Layer0_0_MEMBER_2_FILL"/>
</g>

<g transform="matrix( 0.857391357421875, 0, 0, 0.859527587890625, 45,21.35) ">
<use filter="url(#Filter_1)" xlink:href="#BLC_INT_SFL_2016_160x600_CD_psd_Asset_Countdown_Common_copy_TOP_PRIZES_TO_GO_IN_BC_0_Layer0_0_MEMBER_3_FILL"/>
</g>

<g transform="matrix( 0.857391357421875, 0, 0, 0.859527587890625, 45,21.35) ">
<use filter="url(#Filter_1)" xlink:href="#BLC_INT_SFL_2016_160x600_CD_psd_Asset_Countdown_Common_copy_TOP_PRIZES_TO_GO_IN_BC_0_Layer0_0_MEMBER_4_FILL"/>
</g>

<g transform="matrix( 0.857391357421875, 0, 0, 0.859527587890625, 45,21.35) ">
<use filter="url(#Filter_1)" xlink:href="#BLC_INT_SFL_2016_160x600_CD_psd_Asset_Countdown_Common_copy_TOP_PRIZES_TO_GO_IN_BC_0_Layer0_0_MEMBER_5_FILL"/>
</g>

<g transform="matrix( 0.857391357421875, 0, 0, 0.859527587890625, 45,21.35) ">
<use filter="url(#Filter_1)" xlink:href="#BLC_INT_SFL_2016_160x600_CD_psd_Asset_Countdown_Common_copy_TOP_PRIZES_TO_GO_IN_BC_0_Layer0_0_MEMBER_6_FILL"/>
</g>

<g transform="matrix( 0.857391357421875, 0, 0, 0.859527587890625, 45,21.35) ">
<use filter="url(#Filter_1)" xlink:href="#BLC_INT_SFL_2016_160x600_CD_psd_Asset_Countdown_Common_copy_TOP_PRIZES_TO_GO_IN_BC_0_Layer0_0_MEMBER_7_FILL"/>
</g>

<g transform="matrix( 0.857391357421875, 0, 0, 0.859527587890625, 45,21.35) ">
<use filter="url(#Filter_1)" xlink:href="#BLC_INT_SFL_2016_160x600_CD_psd_Asset_Countdown_Common_copy_TOP_PRIZES_TO_GO_IN_BC_0_Layer0_0_MEMBER_8_FILL"/>
</g>

<g transform="matrix( 0.857391357421875, 0, 0, 0.859527587890625, 45,21.35) ">
<use filter="url(#Filter_1)" xlink:href="#BLC_INT_SFL_2016_160x600_CD_psd_Asset_Countdown_Common_copy_TOP_PRIZES_TO_GO_IN_BC_0_Layer0_0_MEMBER_9_FILL"/>
</g>

<g transform="matrix( 0.857391357421875, 0, 0, 0.859527587890625, 45,21.35) ">
<use filter="url(#Filter_1)" xlink:href="#BLC_INT_SFL_2016_160x600_CD_psd_Asset_Countdown_Common_copy_TOP_PRIZES_TO_GO_IN_BC_0_Layer0_0_MEMBER_10_FILL"/>
</g>

<g transform="matrix( 0.857391357421875, 0, 0, 0.859527587890625, 45,21.35) ">
<use filter="url(#Filter_1)" xlink:href="#BLC_INT_SFL_2016_160x600_CD_psd_Asset_Countdown_Common_copy_TOP_PRIZES_TO_GO_IN_BC_0_Layer0_0_MEMBER_11_FILL"/>
</g>

<g transform="matrix( 0.857391357421875, 0, 0, 0.859527587890625, 45,21.35) ">
<use filter="url(#Filter_1)" xlink:href="#BLC_INT_SFL_2016_160x600_CD_psd_Asset_Countdown_Common_copy_TOP_PRIZES_TO_GO_IN_BC_0_Layer0_0_MEMBER_12_FILL"/>
</g>

<g transform="matrix( 0.857391357421875, 0, 0, 0.859527587890625, 45,21.35) ">
<use filter="url(#Filter_1)" xlink:href="#BLC_INT_SFL_2016_160x600_CD_psd_Asset_Countdown_Common_copy_TOP_PRIZES_TO_GO_IN_BC_0_Layer0_0_MEMBER_13_FILL"/>
</g>

<g transform="matrix( 0.857391357421875, 0, 0, 0.859527587890625, 45,21.35) ">
<use filter="url(#Filter_1)" xlink:href="#BLC_INT_SFL_2016_160x600_CD_psd_Asset_Countdown_Common_copy_TOP_PRIZES_TO_GO_IN_BC_0_Layer0_0_MEMBER_14_FILL"/>
</g>

<g transform="matrix( 0.857391357421875, 0, 0, 0.859527587890625, 45,21.35) ">
<use filter="url(#Filter_1)" xlink:href="#BLC_INT_SFL_2016_160x600_CD_psd_Asset_Countdown_Common_copy_TOP_PRIZES_TO_GO_IN_BC_0_Layer0_0_MEMBER_15_FILL"/>
</g>

<g transform="matrix( 0.857391357421875, 0, 0, 0.859527587890625, 45,21.35) ">
<use filter="url(#Filter_1)" xlink:href="#BLC_INT_SFL_2016_160x600_CD_psd_Asset_Countdown_Common_copy_TOP_PRIZES_TO_GO_IN_BC_0_Layer0_0_MEMBER_16_FILL"/>
</g>
</g>
</svg>
