
<svg xmlns="http://www.w3.org/2000/svg" version="1.1" xmlns:xlink="http://www.w3.org/1999/xlink" preserveAspectRatio="none" x="0px" y="0px" width="300px" height="250px" viewBox="0 0 300 250">
<defs>
<g id="Layer3_0_FILL">
<path fill="#FFFFFF" stroke="none" d="
M 169.75 115.7
Q 171.25 111.95 171.3 107.05 171.25 100.75 168.35 95.3 165.45 89.85 160.25 86.45 155 83.05 147.8 82.95 144.85 82.9 140.9 84.1 136.95 85.25 133.2 88.2 129.45 91.15 127 96.45 124.55 101.8 124.55 109.95
L 134.95 109.95 134.95 108
Q 135.05 102.35 137.15 99 139.2 95.55 142.25 94 145.25 92.5 148.2 92.55 152.3 92.6 155.15 94.7 157.9 96.75 159.4 100 160.85 103.25 160.85 106.75 160.75 111.05 158.85 114.35 156.95 117.65 154.15 120.3
L 124.9 150.15 124.9 158.9 171.4 158.9 171.4 149.3 140.25 149.3 160.95 128.1
Q 163.55 125.45 165.9 122.45 168.25 119.45 169.75 115.7 Z"/>
</g>
</defs>

<g transform="matrix( 1, 0, 0, 1, 0,0) ">
<use xlink:href="#Layer3_0_FILL"/>
</g>
</svg>
