
<svg xmlns="http://www.w3.org/2000/svg" version="1.1" xmlns:xlink="http://www.w3.org/1999/xlink" preserveAspectRatio="none" x="0px" y="0px" width="300px" height="250px" viewBox="0 0 300 250">
<defs>
<g id="Layer3_0_FILL">
<path fill="#FFFFFF" stroke="none" d="
M 168.8 124.55
Q 166.65 120.9 162.2 117.8 163.55 116.7 165.1 115 166.6 113.3 167.7 110.5 168.75 107.75 168.8 103.4 168.75 97.75 166.05 93.15 163.35 88.5 158.85 85.75 154.35 83.05 148.85 82.95 143.5 83 138.95 85.6 134.35 88.2 131.5 92.85 128.65 97.4 128.55 103.5 128.6 107.55 129.65 110.25 130.6 112.95 132.1 114.75 133.5 116.55 134.85 117.8 133.2 118.95 130.95 121.25 128.7 123.5 126.95 127.35 125.2 131.15 125.1 136.95 125.2 144.2 128.65 149.4 132.1 154.6 137.35 157.45 142.7 160.3 148.6 160.35 155.05 160.25 160.35 157.15 165.65 154.05 168.85 148.7 172.05 143.35 172.15 136.65 172.2 134.7 171.55 131.45 170.9 128.2 168.8 124.55
M 154.05 94.1
Q 156.2 95.7 157.3 97.9 158.35 100.15 158.35 102.4 158.35 105.1 157.3 107.55 156.2 109.95 154.05 111.4 151.9 112.95 148.6 113 145.5 112.95 143.35 111.35 141.2 109.85 140.1 107.55 139 105.15 139 102.8 139 100.1 140.2 97.75 141.5 95.45 143.65 94 145.85 92.6 148.75 92.55 151.9 92.6 154.05 94.1
M 135.55 137.45
Q 135.55 133.95 137.25 130.8 138.85 127.65 141.8 125.65 144.75 123.7 148.6 123.65 151.8 123.65 154.75 125.3 157.7 126.95 159.7 130.05 161.65 133.15 161.7 137.55 161.7 140.75 160.05 143.75 158.4 146.75 155.45 148.7 152.55 150.7 148.5 150.75 145 150.7 142.05 148.9 139.1 147.15 137.35 144.15 135.6 141.15 135.55 137.45 Z"/>
</g>
</defs>

<g transform="matrix( 1, 0, 0, 1, 0,0) ">
<use xlink:href="#Layer3_0_FILL"/>
</g>
</svg>
