<?xml version="1.0" encoding="utf-8"?>
<!-- Generator: Adobe Illustrator 20.0.0, SVG Export Plug-In . SVG Version: 6.00 Build 0)  -->
<svg version="1.1" id="Layer_1" xmlns="http://www.w3.org/2000/svg" xmlns:xlink="http://www.w3.org/1999/xlink" x="0px" y="0px"
	 viewBox="0 0 728 90" style="enable-background:new 0 0 728 90;" xml:space="preserve">
<style type="text/css">
	.st0{display:none;}
	.st1{display:inline;}
	.st2{fill:#FFFFFF;}
	.st3{display:inline;filter:url(#Adobe_OpacityMaskFilter);}
	.st4{display:inline;mask:url(#Mask_Mask_1);}
	.st5{filter:url(#Filter_1);}
</style>
<filter  color-interpolation-filters="sRGB" height="140%" id="Filter_1" width="140%" x="-20%" y="-20%">
	<feColorMatrix  in="SourceGraphic" result="result1" type="matrix" values="1 0 0 0 0 0 1 0 0 0 0 0 1 0 0 0 0 0 0.9 0">
		</feColorMatrix>
</filter>
<g transform="matrix( 1, 0, 0, 1, 104,-4) ">
	<g transform="matrix( 1, 0, 0, 1, -104,4) " class="st0">
		<g class="st1">
			
				<image style="overflow:visible;enable-background:new    ;" width="728" height="90" id="BLC_INT_SFL_2016_728x90_CDa_psd_Asset_Display_3___Forest_Frame_2_Assets__Will_you_be_next__" xlink:href="9E7730F3.png" >
			</image>
		</g>
	</g>
	<g transform="matrix( 1, 0, 0, 1, -104,4) ">
		<g>
			<g id="Layer1_1_FILL">
				<path class="st2" d="M234.8,36.8h-2.8L228.6,51h-0.1L225,36.8h-3.8l5.9,20.3h2.9l3.3-13.5h0.1l3.3,13.5h3l5.9-20.3h-3.8
					L238.3,51h-0.1L234.8,36.8 M273.1,36.8h-3.8v20.3h10v-3.5h-6.2V36.8 M252.1,36.8h-3.8v20.3h3.8V36.8 M260.4,36.8h-3.8v20.3h10
					v-3.5h-6.2V36.8 M301.5,36.8l-4.5,9.3l-4.4-9.3h-4.1l6.6,12.8v7.5h3.8v-7.5l6.7-12.8H301.5 M328.4,47c0-3-1-5.5-3.1-7.5
					c-2.1-2.1-4.6-3.1-7.5-3.1c-2.9,0-5.4,1-7.5,3.1c-2.1,2.1-3.1,4.6-3.1,7.5c0,2.9,1,5.4,3.1,7.5c2.1,2,4.6,3,7.5,3
					c2.9,0,5.4-1,7.5-3C327.3,52.4,328.4,50,328.4,47 M317.7,40c1.9,0,3.6,0.7,4.9,2c1.3,1.4,2,3,2,5c0,1.9-0.7,3.6-2,5
					c-1.3,1.4-3,2.1-4.9,2.1c-1.9,0-3.5-0.7-4.9-2.1c-1.3-1.4-2-3-2-5c0-2,0.7-3.6,2-5C314.2,40.6,315.8,40,317.7,40 M335.2,36.8
					h-3.8v12.9c0,2.1,0.4,3.7,1.3,4.9c0.5,0.7,1.2,1.4,2.1,1.9c1.2,0.7,2.5,1,3.9,1c2.6,0,4.6-1,6-3c0.8-1.1,1.2-2.7,1.2-4.8V36.8
					h-3.8v12.9c0,2.9-1.2,4.3-3.5,4.3s-3.5-1.4-3.5-4.3V36.8 M378.5,45.3v-5h7.1v-3.5h-10.9v20.3h10.9v-3.5h-7.1v-4.8h6.9v-3.5
					H378.5 M370.4,42.2c0-1.5-0.6-2.8-1.8-3.8c-0.8-0.7-1.8-1.2-2.9-1.4c-0.7-0.1-1.8-0.2-3.3-0.2h-4v20.3h5.5
					c2.3,0,4.1-0.4,5.3-1.2c1.7-1.2,2.5-2.9,2.5-4.9c0-2.5-1.2-4.2-3.5-5C369.6,45.2,370.4,43.9,370.4,42.2 M362.2,48.3h1.9
					c1.4,0,2.5,0.4,3.1,1c0.4,0.5,0.6,1,0.6,1.7c0,1.8-1.3,2.7-3.8,2.7h-1.8V48.3 M363.4,44.8h-1.2v-4.4h1.5c1.9,0,2.9,0.7,2.9,2.2
					S365.6,44.8,363.4,44.8 M472.8,57.2v-3.7h-3.6v3.7H472.8 M414.8,36.8H411v14.8h0l-8.4-14.8h-4.3v20.3h3.8V42.3h0.1l8.4,14.8h4.2
					V36.8 M422.8,45.3v-5h7.1v-3.5H419v20.3h10.9v-3.5h-7.1v-4.8h6.9v-3.5H422.8 M473.3,49c0.2-0.4,0.6-0.8,1.3-1.3
					c1.8-1.7,2.8-3.3,2.8-5c0-1.9-0.6-3.5-1.9-4.7c-1.2-1.1-2.6-1.6-4.3-1.6c-1.1,0-2.1,0.3-3.1,0.8c-1.9,1-3,2.9-3.2,5.5h3.6
					c0.1-0.8,0.3-1.4,0.5-1.8c0.4-0.6,1.1-1,2-1c0.6,0,1.2,0.2,1.7,0.5c0.6,0.5,0.9,1.2,0.9,2.2c0,0.6-0.2,1.1-0.6,1.5
					c-0.3,0.4-0.8,0.9-1.5,1.5c-1.6,1.4-2.4,3.2-2.4,5.5V52h3.6v-0.9C472.8,50.2,472.9,49.5,473.3,49 M463,40.3v-3.5h-11.3v3.5h3.8
					v16.8h3.8V40.3H463 M450.8,36.8h-4.3l-4.9,7.1l-4.8-7.1h-4.5l7,10.2l-7,10.2h4.5l4.8-7.1l4.9,7.1h4.3l-7-10.2L450.8,36.8z"/>
			</g>
		</g>
	</g>
	<g transform="matrix( 1, 0, 0, 1, 142,41) " class="st0">
		<defs>
			<filter id="Adobe_OpacityMaskFilter" filterUnits="userSpaceOnUse" x="-391.6" y="-55" width="1019" height="126">
				<feColorMatrix  type="matrix" values="1 0 0 0 0  0 1 0 0 0  0 0 1 0 0  0 0 0 1 0"/>
			</filter>
		</defs>
		<mask maskUnits="userSpaceOnUse" x="-391.6" y="-55" width="1019" height="126" id="Mask_Mask_1" class="st1">
			<g transform="matrix( 1, 0, 0, 1, -246,-37) " style="filter:url(#Adobe_OpacityMaskFilter);">
				<g>
					<g id="Mask_BLC_INT_SFL_2016_728x90_CDa_psd_Asset_Display_3___Forest_Frame_2__More_Top_PRIZE_in_bc___2_0_1_MASK_0_FILL">
						<path class="st2" d="M261.7,41.8L261.7,41.8l0,13.3h3.3V37.4h-4.5l-4.7,13.4h-0.1l-4.7-13.4h-4.6v17.8h3.3V41.8l4.6,13.3h2.8
							L261.7,41.8 M313.4,37.4h-9.5v17.8h9.5V52h-6.3v-4.2h6v-3h-6v-4.3h6.3V37.4 M292.7,48.3L292.7,48.3l4.8,6.8h3.9l-4.8-6.6
							c1.2-0.3,2.2-0.7,2.9-1.4c1.1-1.1,1.7-2.5,1.7-4.3c0-1.7-0.7-3.2-2.1-4.3c-0.9-0.8-2.4-1.2-4.3-1.2h-5.5v17.8h3.3V48.3
							 M292.7,45.9v-5.5h2.1c1.1,0,2,0.3,2.6,1c0.4,0.5,0.6,1,0.6,1.7s-0.2,1.3-0.6,1.8c-0.5,0.7-1.4,1-2.6,1H292.7 M286.5,46.3
							c0-2.6-0.9-4.8-2.8-6.6c-1.8-1.8-4-2.7-6.5-2.7c-2.5,0-4.7,0.9-6.5,2.7c-1.8,1.8-2.8,4-2.8,6.6c0,2.5,0.9,4.7,2.7,6.5
							c1.8,1.8,4,2.7,6.6,2.7c2.6,0,4.7-0.9,6.5-2.7C285.6,51,286.5,48.8,286.5,46.3 M273,42c1.2-1.2,2.6-1.9,4.3-1.9
							c1.7,0,3.1,0.6,4.3,1.9c1.2,1.2,1.8,2.7,1.8,4.3c0,1.7-0.6,3.1-1.7,4.3c-1.2,1.2-2.6,1.9-4.3,1.9s-3.1-0.6-4.3-1.9
							c-1.2-1.2-1.8-2.6-1.8-4.3C271.2,44.6,271.8,43.1,273,42 M343.5,37c-2.5,0-4.7,0.9-6.5,2.7c-1.8,1.8-2.8,4-2.8,6.6
							c0,2.5,0.9,4.7,2.7,6.5c1.8,1.8,4,2.7,6.6,2.7s4.7-0.9,6.5-2.7c1.8-1.8,2.8-4,2.8-6.5c0-2.6-0.9-4.8-2.8-6.6
							C348.2,37.9,346,37,343.5,37 M337.5,46.3c0-1.7,0.6-3.2,1.8-4.3c1.2-1.2,2.6-1.9,4.3-1.9c1.7,0,3.1,0.6,4.3,1.9
							c1.2,1.2,1.8,2.7,1.8,4.3c0,1.7-0.6,3.1-1.7,4.3c-1.2,1.2-2.6,1.9-4.3,1.9c-1.7,0-3.1-0.6-4.3-1.9
							C338,49.4,337.5,48,337.5,46.3 M329.5,40.5h3.3v-3h-9.9v3h3.3v14.7h3.3V40.5 M394.3,48.3L394.3,48.3l4.8,6.8h4l-4.8-6.6
							c1.3-0.3,2.2-0.8,2.9-1.4c1.1-1.1,1.7-2.5,1.7-4.3c0-1.7-0.7-3.2-2.1-4.3c-0.9-0.8-2.4-1.2-4.3-1.2H391v17.8h3.3V48.3
							 M394.3,45.9v-5.5h2.1c1.1,0,2,0.3,2.6,1c0.4,0.5,0.6,1,0.6,1.7c0,0.7-0.2,1.3-0.5,1.8c-0.5,0.7-1.4,1-2.6,1H394.3
							 M380.5,48.4h1.2c1.2,0,2.1-0.1,2.6-0.2c0.9-0.2,1.8-0.6,2.6-1.3c1.1-1,1.6-2.3,1.6-4c0-1.7-0.6-3.1-1.6-4.1
							c-0.8-0.6-1.6-1-2.6-1.2c-0.6-0.1-1.4-0.2-2.6-0.2h-4.4v17.8h3.3V48.4 M380.5,40.5h1.2c2.4,0,3.6,0.8,3.6,2.5
							c0,1-0.4,1.7-1.3,2c-0.6,0.2-1.4,0.3-2.4,0.3h-1V40.5 M365.5,47c1.1-1,1.7-2.4,1.7-4c0-1.7-0.6-3.1-1.7-4.1
							c-0.7-0.6-1.6-1-2.5-1.2c-0.6-0.1-1.5-0.2-2.7-0.2h-4.4v17.8h3.3v-6.8h1.1c1.2,0,2.1-0.1,2.7-0.2
							C363.9,48,364.8,47.6,365.5,47 M360.3,40.5c2.4,0,3.6,0.8,3.6,2.5c0,1.6-1.2,2.4-3.7,2.4h-1.1v-4.8H360.3 M434.9,37.4h-9.6
							v17.8h9.6V52h-6.3v-4.2h6v-3h-6v-4.3h6.3V37.4 M422.4,40.3v-2.8h-10.3v3h6.4l-6.8,12v2.7h11V52h-7.2L422.4,40.3 M409,37.4
							h-3.3v17.8h3.3V37.4 M456.5,42.3L456.5,42.3l7.5,12.9h3.6V37.4h-3.3v12.9h0L457,37.4h-3.8v17.8h3.3V42.3 M449.2,37.4H446v17.8
							h3.3V37.4 M512.7,52.1v3.1h3.2v-3.1H512.7 M515.9,37.4h-3.2v13.3h3.2V37.4 M497.5,41.8c1.2-1.2,2.5-1.8,4-1.8
							c1.8,0,3.4,0.8,4.7,2.4h3.8c-0.8-1.8-2-3.2-3.7-4.2c-1.4-0.8-3-1.3-4.6-1.3c-2.5,0-4.7,0.9-6.5,2.8c-1.8,1.8-2.6,3.9-2.6,6.4
							c0,2.5,0.9,4.7,2.7,6.5c1.8,1.8,4,2.8,6.6,2.8c1.7,0,3.3-0.5,4.8-1.5c1.5-1,2.6-2.3,3.4-3.8h-3.8c-0.6,0.7-1.2,1.2-1.6,1.5
							c-0.8,0.5-1.8,0.8-2.8,0.8c-1.6,0-3-0.6-4.1-1.9c-1.2-1.2-1.8-2.7-1.8-4.3C495.8,44.5,496.4,43,497.5,41.8 M487.3,45.5
							c1.3-0.7,2-1.9,2-3.4c0-1.3-0.5-2.4-1.5-3.3c-0.7-0.6-1.5-1-2.5-1.2c-0.6-0.1-1.6-0.1-2.9-0.1h-3.5v17.8h4.8
							c2,0,3.5-0.4,4.5-1.1c1.5-1.1,2.2-2.5,2.2-4.3C490.4,47.7,489.3,46.2,487.3,45.5 M486.5,48.3c0.4,0.4,0.6,0.9,0.6,1.5
							c0,1.5-1.1,2.3-3.3,2.3h-1.7v-4.7h1.8C485.1,47.3,486,47.7,486.5,48.3 M482.1,40.5h1.4c1.7,0,2.5,0.7,2.5,2
							c0,1.3-0.9,1.9-2.8,1.9h-1.1V40.5z"/>
					</g>
				</g>
			</g>
		</mask>
		<g class="st4">
			<g transform="matrix( 1, 0, 0, 1, -246,-37) " class="st5">
				<g>
					<image style="overflow:visible;enable-background:new    ;" width="728" height="90" xlink:href="9E7730F1.png" >
					</image>
				</g>
			</g>
		</g>
	</g>
</g>
</svg>
