
<svg xmlns="http://www.w3.org/2000/svg" version="1.1" xmlns:xlink="http://www.w3.org/1999/xlink" preserveAspectRatio="none" x="0px" y="0px" width="300px" height="250px" viewBox="0 0 300 250">
<defs>
<g id="Layer3_0_FILL">
<path fill="#FFFFFF" stroke="none" d="
M 171.05 125.55
Q 167.75 120.15 162.75 117.25 157.8 114.3 152.4 114.2 151.4 114.2 150.5 114.25 149.65 114.3 148.8 114.5
L 165.25 89.25 149.6 89.25 128.9 120.95
Q 127.6 122.85 126.55 124.9 125.45 127.05 124.55 129.3 123.7 131.8 123.25 134.15 122.85 136.5 122.85 138.6 122.95 146.8 126.6 152.75 130.2 158.75 136.05 162 141.9 165.2 148.7 165.25 155.55 165.2 161.4 161.85 167.2 158.5 170.75 152.45 174.3 146.45 174.4 138.5 174.3 131 171.05 125.55
M 137.85 145.95
Q 136.25 142.9 136.2 139.15 136.2 136.3 137.6 133.45 139 130.55 141.75 128.6 144.45 126.7 148.35 126.6 152 126.65 154.85 128.4 157.65 130.15 159.35 133.1 161 136.05 161.05 139.7 161.05 142.7 159.65 145.6 158.2 148.55 155.45 150.55 152.7 152.55 148.7 152.6 145.05 152.55 142.25 150.75 139.45 148.95 137.85 145.95 Z"/>
</g>
</defs>

<g transform="matrix( 1, 0, 0, 1, 0,0) ">
<use xlink:href="#Layer3_0_FILL"/>
</g>
</svg>
