
<svg xmlns="http://www.w3.org/2000/svg" version="1.1" xmlns:xlink="http://www.w3.org/1999/xlink" preserveAspectRatio="none" x="0px" y="0px" width="160px" height="600px" viewBox="0 0 160 600">
<defs>
<g id="Layer4_0_FILL">
<path fill="#FFFFFF" stroke="none" d="
M 83.9 93.8
Q 85.7 94.7 86.9 96.5 88.15 98.4 88.2 101.25 88.2 102.55 87.8 104.1 87.35 105.65 86.05 107.7 84.75 109.65 82.05 112.2
L 62.4 130.6 62.4 140 98.05 140 98.05 130.6 76.25 130.6 87.45 120.55
Q 91.65 116.8 93.95 113.6 96.3 110.4 97.2 107.45 98.1 104.55 98.05 101.75 98.05 97.1 95.85 93 93.65 88.9 89.6 86.25 85.55 83.65 79.9 83.55 75.6 83.6 72.25 85.2 68.85 86.75 66.5 89.45 64.25 92.1 63 95.3 61.8 98.55 61.8 101.9 61.8 102.3 61.8 102.7 61.85 103.1 61.85 103.65
L 71.7 103.65
Q 71.65 102 71.85 100.45 72 98.9 72.75 97.45 73.6 95.85 75.4 94.45 77.2 93.05 80.15 93 82.05 93 83.9 93.8 Z"/>
</g>
</defs>

<g transform="matrix( 1, 0, 0, 1, 0,0) ">
<use xlink:href="#Layer4_0_FILL"/>
</g>
</svg>
