
<svg xmlns="http://www.w3.org/2000/svg" version="1.1" xmlns:xlink="http://www.w3.org/1999/xlink" preserveAspectRatio="none" x="0px" y="0px" width="160px" height="600px" viewBox="0 0 160 600">
<defs>
<g id="Layer4_0_FILL">
<path fill="#FFFFFF" stroke="none" d="
M 96.35 92.95
Q 93.65 88.5 89.35 86.1 85 83.65 79.95 83.65 74.85 83.65 70.55 86.2 66.25 88.65 63.6 93.15 60.95 97.6 60.9 103.5 60.95 109.05 63.35 113.1 65.8 117.15 69.5 119.3 73.2 121.45 77.2 121.55 77.95 121.55 78.6 121.5 79.25 121.45 79.9 121.3
L 67.65 140 79.3 140 94.65 116.55
Q 95.6 115.1 96.4 113.6 97.2 112 97.85 110.35 98.5 108.5 98.85 106.75 99.15 105 99.15 103.45 99.05 97.35 96.35 92.95
M 84.75 94.4
Q 86.85 95.75 88.05 97.95 89.2 100.25 89.25 103 89.25 105.1 88.2 107.25 87.1 109.4 85.1 110.85 83.05 112.25 80.05 112.35 75.9 112.25 73.35 109.6 70.85 106.9 70.8 102.6 70.8 100.4 71.85 98.25 72.9 96.05 74.95 94.6 77 93.1 80.05 93.05 82.7 93.1 84.75 94.4 Z"/>
</g>
</defs>

<g transform="matrix( 1, 0, 0, 1, 0,0) ">
<use xlink:href="#Layer4_0_FILL"/>
</g>
</svg>
