
<svg xmlns="http://www.w3.org/2000/svg" version="1.1" xmlns:xlink="http://www.w3.org/1999/xlink" preserveAspectRatio="none" x="0px" y="0px" width="160px" height="600px" viewBox="0 0 160 600">
<defs>
<g id="Layer4_0_FILL">
<path fill="#FFFFFF" stroke="none" d="
M 65.3 108.25
Q 64.35 109.65 63.55 111.2 62.75 112.75 62.1 114.45 61.45 116.3 61.1 118.05 60.8 119.8 60.8 121.3 60.9 127.4 63.6 131.85 66.25 136.3 70.6 138.7 74.95 141.1 80 141.15 85.1 141.1 89.4 138.6 93.7 136.1 96.35 131.6 99 127.15 99.05 121.25 99 115.7 96.6 111.65 94.15 107.65 90.45 105.5 86.75 103.3 82.7 103.25 82 103.25 81.35 103.25 80.7 103.3 80.05 103.45
L 92.3 84.7 80.65 84.7 65.3 108.25
M 74.8 113.9
Q 76.8 112.5 79.75 112.4 82.45 112.45 84.55 113.75 86.65 115.1 87.9 117.25 89.1 119.45 89.15 122.15 89.15 124.4 88.1 126.55 87.05 128.75 85 130.2 82.95 131.7 80 131.7 77.3 131.7 75.2 130.35 73.1 129 71.95 126.8 70.75 124.55 70.7 121.75 70.7 119.65 71.75 117.55 72.8 115.4 74.8 113.9 Z"/>
</g>
</defs>

<g transform="matrix( 1, 0, 0, 1, 0,0) ">
<use xlink:href="#Layer4_0_FILL"/>
</g>
</svg>
