<svg xmlns="http://www.w3.org/2000/svg" width="95.501" height="79.969" viewBox="0 0 95.501 79.969">
  <defs>
    <style>
      .cls-1 {
        fill: #fff;
        fill-rule: evenodd;
        opacity: 0.9;
      }
    </style>
  </defs>
  <path id="_Will_you_be_next_" data-name=" Will   you be  next?" class="cls-1" d="M57.374,111.378h2.909l3.286-13.205h0.054l3.233,13.205h2.936l5.792-19.984H71.812l-3.475,13.962H68.283l-3.34-13.962H62.249l-3.421,13.962H58.774L55.326,91.394H51.555Zm20.845,0h3.691V91.394h-3.69v19.984Zm8.215,0h9.778v-3.457H90.124V91.394h-3.69v19.984Zm12.523,0h9.778v-3.457h-6.088V91.394h-3.69v19.984Zm-59.978,30h3.69v-7.372l6.573-12.612H45.174l-4.364,9.182-4.337-9.182H32.433l6.546,12.612v7.372Zm11.769-9.938a10.425,10.425,0,1,0,10.425-10.451A10.389,10.389,0,0,0,50.747,131.44Zm3.691-.027a6.737,6.737,0,1,1,6.734,6.913A6.846,6.846,0,0,1,54.438,131.413Zm20.2-10.019v12.693a7.978,7.978,0,0,0,1.239,4.833,7.43,7.43,0,0,0,5.926,2.863,7.237,7.237,0,0,0,5.953-2.971,8.182,8.182,0,0,0,1.158-4.725V121.394h-3.69v12.693c0,1,0,4.239-3.448,4.239s-3.448-3.24-3.448-4.239V121.394h-3.69Zm26.529,19.984H106.5a9.653,9.653,0,0,0,5.145-1.188,5.637,5.637,0,0,0,2.478-4.753,4.817,4.817,0,0,0-3.421-4.969,4.061,4.061,0,0,0,2.236-3.808,5.247,5.247,0,0,0-1.7-3.726c-1.724-1.54-3.933-1.54-6.142-1.54h-3.933v19.984Zm3.691-8.75H106.8c3.233,0,3.637,1.864,3.637,2.674,0,2.619-2.99,2.619-3.717,2.619h-1.859v-5.293Zm0-7.777h1.535c2.1,0,2.856.972,2.856,2.16,0,2.161-2.317,2.161-3.179,2.161h-1.212v-4.321Zm12.361,16.527h10.721v-3.457h-7.031V133.2h6.735v-3.456h-6.735v-4.888h7.031v-3.457H117.217v19.984Zm-74.967,30h3.691V156.849h0.054l8.324,14.529H58.44V151.394h-3.69v14.529H54.7l-8.243-14.529h-4.2v19.984Zm20.361,0H73.332v-3.457H66.3V163.2h6.734v-3.456H66.3v-4.888h7.031v-3.457H62.611v19.984Zm13.143,0h4.391l4.66-6.913,4.795,6.913h4.256l-6.9-9.965,6.9-10.019H89.6L84.8,158.362l-4.66-6.968H75.754l6.869,10.019Zm22.732,0h3.691V154.851h3.717v-3.457H94.8v3.457h3.69v16.527Zm16.915-5.05V165.41a3.857,3.857,0,0,1,1.724-3.349c2.424-2.241,2.721-3.645,2.721-4.915a5.9,5.9,0,0,0-6.007-6.157c-0.324,0-5.711,0-6.2,6.238h3.583c0.161-1.08.4-2.646,2.505-2.646a2.38,2.38,0,0,1,2.532,2.565c0,1.216-.781,1.945-2.047,3a6.731,6.731,0,0,0-2.4,5.4v0.783H115.4Zm-3.583,5.05H115.4v-3.592h-3.583v3.592Z" transform="translate(-32.438 -91.406)"/>
</svg>
