
<svg xmlns="http://www.w3.org/2000/svg" version="1.1" xmlns:xlink="http://www.w3.org/1999/xlink" preserveAspectRatio="none" x="0px" y="0px" width="300px" height="250px" viewBox="0 0 300 250">
<defs>
<g id="Layer3_0_FILL">
<path fill="#FFFFFF" stroke="none" d="
M 173.05 112.2
Q 173 105.95 170.1 100.45 167.15 94.9 161.65 91.35 156.2 87.8 148.55 87.7 142.75 87.75 138.25 89.9 133.7 92.05 130.55 95.6 127.45 99.2 125.8 103.55 124.2 107.9 124.2 112.4 124.2 112.95 124.2 113.5 124.25 114.05 124.3 114.8
L 137.5 114.8
Q 137.45 112.6 137.7 110.45 137.95 108.35 138.95 106.45 140.05 104.25 142.5 102.4 144.95 100.5 148.9 100.4 151.45 100.4 153.95 101.5 156.4 102.7 158 105.15 159.7 107.65 159.75 111.55 159.8 113.25 159.25 115.4 158.65 117.5 156.9 120.2 155.1 122.85 151.5 126.3
L 124.95 151.05 124.95 163.75 173.05 163.75 173.05 151.05 143.65 151.05 158.75 137.55
Q 164.4 132.5 167.55 128.15 170.65 123.85 171.9 119.9 173.1 115.95 173.05 112.2 Z"/>
</g>
</defs>

<g transform="matrix( 1, 0, 0, 1, 0,0) ">
<use xlink:href="#Layer3_0_FILL"/>
</g>
</svg>
