
<svg xmlns="http://www.w3.org/2000/svg" version="1.1" xmlns:xlink="http://www.w3.org/1999/xlink" preserveAspectRatio="none" x="0px" y="0px" width="300px" height="250px" viewBox="0 0 300 250">
<defs>
<g id="Layer3_0_FILL">
<path fill="#FFFFFF" stroke="none" d="
M 175.3 139.9
L 167.45 139.9 167.45 89.25 156.2 89.25 122.05 141.65 122.05 152.6 154.1 152.6 154.1 163.75 167.45 163.75 167.45 152.6 175.3 152.6 175.3 139.9
M 154.1 139.9
L 136.45 139.9 153.9 111.9 154.1 111.9 154.1 139.9 Z"/>
</g>
</defs>

<g transform="matrix( 1, 0, 0, 1, 0,0) ">
<use xlink:href="#Layer3_0_FILL"/>
</g>
</svg>
