
<svg xmlns="http://www.w3.org/2000/svg" version="1.1" xmlns:xlink="http://www.w3.org/1999/xlink" preserveAspectRatio="none" x="0px" y="0px" width="300px" height="250px" viewBox="0 0 300 250">
<defs>
<g id="Layer3_0_FILL">
<path fill="#FFFFFF" stroke="none" d="
M 171.2 126.7
Q 168.15 120.9 162.85 117.25 157.5 113.6 150.55 113.5 147.9 113.5 145.55 114.1 143.2 114.65 141.05 115.6
L 143.45 101.9 167.05 101.9 167.05 89.25 133.4 89.25 126.4 128.2 138.3 131.55
Q 139.15 130.4 140.4 129.2 141.7 127.95 143.65 127.15 145.55 126.25 148.35 126.2 152.3 126.25 155.05 128.25 157.9 130.2 159.4 133.2 160.9 136.15 160.9 139.25 160.9 142.4 159.5 145.4 158.1 148.45 155.25 150.5 152.4 152.5 148.15 152.6 146 152.65 143.6 151.65 141.2 150.65 139.25 148.25 137.25 145.85 136.4 141.65
L 123.05 141.65
Q 123.45 148.15 126.95 153.55 130.5 158.85 136.15 162.05 141.8 165.2 148.45 165.25 156.1 165.2 161.9 161.55 167.65 157.95 170.9 152.05 174.2 146.2 174.25 139.25 174.2 132.55 171.2 126.7 Z"/>
</g>
</defs>

<g transform="matrix( 1, 0, 0, 1, 0,0) ">
<use xlink:href="#Layer3_0_FILL"/>
</g>
</svg>
