
<svg xmlns="http://www.w3.org/2000/svg" version="1.1" xmlns:xlink="http://www.w3.org/1999/xlink" preserveAspectRatio="none" x="0px" y="0px" width="300px" height="250px" viewBox="0 0 300 250">
<defs>
<g id="Layer3_0_FILL">
<path fill="#FFFFFF" stroke="none" d="
M 171.1 89.25
Q 166.85 87.7 162.55 87.7 157.95 87.7 153.45 89.15 149 90.6 145.35 93.65 141.65 96.65 139.4 101.4 137.2 106.2 137.15 112.75
L 137.15 139.6
Q 137.15 145.8 138.7 150 140.25 154.15 143.25 157.1 147.55 161.45 152.1 163.4 156.6 165.3 162.15 165.25 168.75 165.25 174.35 162.4 180 159.5 183.5 153.95 186.9 148.4 187 140.3
L 187 112.75
Q 186.95 106.45 184.75 101.7 182.6 97 179 93.9 175.45 90.8 171.1 89.25
M 173.65 112.85
L 173.65 139.05
Q 173.55 144.85 171.5 147.75 169.5 150.7 166.8 151.7 164.15 152.7 162.15 152.6 159.85 152.65 157.15 151.55 154.45 150.45 152.55 147.45 150.55 144.45 150.45 138.8
L 150.45 113.35
Q 150.5 109.15 152.1 106.25 153.65 103.35 156.3 101.85 158.95 100.4 162.25 100.4 165.4 100.4 168 102 170.55 103.6 172.1 106.4 173.6 109.2 173.65 112.85
M 125.5 89.25
L 102.85 89.25 102.85 101.9 112.15 101.9 112.15 163.75 125.5 163.75 125.5 89.25 Z"/>
</g>
</defs>

<g transform="matrix( 1, 0, 0, 1, 0,0) ">
<use xlink:href="#Layer3_0_FILL"/>
</g>
</svg>
